ligne;ballon;affiche;portrait
place;partir;apeurer;consonne
petit;propre;exemple;accepter
suite;couper;syllabe;accident
folie;numéro;radical;masculin
union;écrire;sérieux;indiquer
forme;lettre;présent;toujours
nuage;bureau;silence;exprimer
verbe;banane;pluriel;contenir
temps;accent;ajouter;accorder
selon;accord;pouvoir;monsieur
genre;enfant;vouloir;proverbe
sujet;action;prendre;division
poser;groupe;chanter;enrouler
faire;soleil;exister;portable
avoir;simple;souvent;cartable
autre;malade;trouver;document
aller;poteau;féminin;moquerie
somme;phrase;respect;analyser
atlas;orange;famille;imprimer
règle;passer;ciseaux;aviation
wagon;douche;couteau;grandeur
table;madame;grandir;résultat
stylo;moment;moderne;
opéra;former;montant;
force;devoir;message;
pièce;courir;compter;
monde;devant;musique;
reine;saisir;console;
royal;classe;contact;
boule;poésie;étudier;
livre;figure;chanson;
vivre;chaise;égalité;
final;feutre;volonté;
jouer;papier;citoyen;
homme;battre;civique;
droit;mettre;général;
élire;actuel;liberté;
impôt;rapide;profond;
vaste;vendre;nouveau;
océan;animer;voiture;
début;course;oublier;
moyen;autrui;;
signe;cochon;;
voter;député;;
femme;région;;
;indien;;
;vapeur;;
;chemin;;
