blue;bleu;
home;maison;
name;prénom/nom;
kitchen;cuisine;
finger;doigt;
head;tête;
foot;pied;
yellow;jaune;
pink;rose;
right;droite;
left;gauche;
computer;ordinateur;
monkey;singe;
bird;oiseau;
england;angleterre;
america;amérique;
green;vert;
white;blanc;
monday;lundi;
sunday;dimanche;
school;école;
april;avril;
birthday;anniversaire;
listen;écouter;
short;petit;
eyes;oeil;