De quand date l'invention du moteur à essence ?;1904;1886;2007;1753;2
Louis Blériot traversa le premier la Manche en :;1909;1878;1790;1954;1
Le vaccin contre la rage fut découvert par Louis Pasteur en :;1723;1654;1885;1745;3
Le pouvoir législatif est :;Le pouvoir de faire exécuter les lois.;Le pouvoir de devenir une légende;Le pouvoir de faire la justice;Le pouvoir de faire voter les lois;4
La devise qui s'impose sur les frontons des édifices publics est :;Travail, liberté, patrie;Honneur, fraternité, justice;Liberté, égalité, fraternité;Union, discipline, travail;3
Dans les devoirs du citoyen, le citoyen doit :;Témoigner en justice.;Représenter ou assister quelqu'un devant la justice.;Protester contre le 49.3;Respecter la loi et les autres citoyens;4
Avec quoi fonctionne la machine à vapeur ?;Du gaz;De l'eau et du charbon;De l'essence;De l'électricité;2
De quoi sont équipées les premières voitures ?;De moteurs hybrides;De moteurs électriques;De moteurs à vapeur;De moteurs à essence;3
Qui as inventé la pile ?;Le Britannique Bradley Wiggins;L'Espagnol Fernando Alonso;Le Français Sébastien Loeb;L'Italien Alessandro Volta;4
Le cinéma à été inventé par :;Les frères Lumière;Les frères Scott;Les fréro Delavega;Les frères Bogdanov;1
Les Français élisent leur Président de la République pour :;5 ans;7 ans;10 ans;4 ans;1
Une personne qui ne sait ni lire ni écrire est un :;Indépendant;Illettré;Athée;Analphabète;4
Qui as permis le développement de l'éducation en France à la fin du XIXème siècle?;Jules Ferry;François Mouche;Georges Pompidou;Nicolas Kayak;1
Le 14 juillet que célèbre t-on en France ?;La Royauté;La République;La Dictature;La Monarchie;2
Combien compte t-on de continent sur Terre ?;8;6;5;3;2
Combien de planètes comporte notre système solaire ?;15;10;8;9;3
Qui a peint la Joconde ?;Andy Warhol;Léonard de Vinci;Vincent van Gogh;Pablo Picasso;2
Quand un volcan expulse de la lave, on dit qu'il rentre en :;Ebullition;Equation;Erosion;Eruption;4
En général combien d'yeux une araignée possède-t-elle ?;8;12;2;4;1
Quelle langue est la plus parlée dans le monde ?;Le Français;Le Russe;L'Anglais;Le Chinois;4
Dans quelle ville passe la Seine ?;Berlin;Paris;New-York;Londres;2
Qu'est-ce qu'un tsunami ?;Une tornade;Un ouragan;Un raz de marée;Un cyclone;3
A partir de quel âge dispose t-on du droit de vote :;23 ans;16 ans;21 ans;18 ans;4
Qui a-t-on appelé le Roi Soleil ?;Simba;Louis XIV;Henry VI;Louis II;2
En quelle année a eu lieu la bataille de Marignan ?;1515;1789;2012;1968;1
Comment surnomme t-on les soldats français de la première guerre ?  ;Les françois;Les baguettes;Les poilus;Les anciens;3
